%YAML 1.1
%TAG !u! tag:unity3d.com,2011:
--- !u!114 &11400000
MonoBehaviour:
  m_ObjectHideFlags: 0
  m_CorrespondingSourceObject: {fileID: 0}
  m_PrefabInstance: {fileID: 0}
  m_PrefabAsset: {fileID: 0}
  m_GameObject: {fileID: 0}
  m_Enabled: 1
  m_EditorHideFlags: 0
  m_Script: {fileID: 11500000, guid: 6b50fbbac4f234e4d9a1ba30e84a0fae, type: 3}
  m_Name: ResourceDatabase
  m_EditorClassIdentifier: 
  m_ResourcesToLoad:
  - Key: Assets/_External/tfc-assets/UI/Textures/Icons/Effects/T_UI_Icon_Effect_Miasma.png
    Resource: {fileID: 21300000, guid: f34d574e3f3bc5b4ebb34c3e7c632b37, type: 3}
  - Key: Assets/_External/tfc-assets/UI/Textures/Icons/Effects/T_UI_Icon_Effect_Strenght.png
    Resource: {fileID: 21300000, guid: 4ecbcf2aaa340af4da7621755a0314ac, type: 3}
  - Key: Assets/_External/tfc-assets/UI/Textures/Icons/Effects/T_UI_Icon_Effect_Weakness.png
    Resource: {fileID: 21300000, guid: b15459f42d3c6c845b1ce51a1692892a, type: 3}
  - Key: Assets/_External/tfc-assets/UI/Textures/Icons/Effects/T_UI_Icon_Effect_Haste.png
    Resource: {fileID: 21300000, guid: b36392d25e4ab7b428fbb8ca9c32ed0e, type: 3}
  - Key: Assets/_External/tfc-assets/UI/Textures/Icons/Effects/T_UI_Icon_Effect_Fatigue.png
    Resource: {fileID: 21300000, guid: 6c5f5141da2d1d3478870c1fbb3e77ab, type: 3}
  - Key: Assets/_External/tfc-assets/UI/Textures/Icons/Effects/T_UI_Icon_Effect_Guard.png
    Resource: {fileID: 21300000, guid: dbc033d7de2e263418032bb843c81e8f, type: 3}
  - Key: Assets/_External/tfc-assets/UI/Textures/Icons/Effects/T_UI_Icon_Effect_Vulnerable.png
    Resource: {fileID: 21300000, guid: e43fcc44fc780cf4d9a40dbf5bb51ac4, type: 3}
  - Key: Assets/_Project/Prefabs/VFX/PREF_VFX_Miasma_State.prefab
    Resource: {fileID: 6575722281548740005, guid: 5a2ac9d2a233d8a42a780bc518ca20a1,
      type: 3}
  - Key: Assets/_Project/Prefabs/VFX/PREF_VFX_Vulnerable_State.prefab
    Resource: {fileID: 2536192990888013184, guid: 2065d46354ca23f46a0abdb6cf940b2e,
      type: 3}
  - Key: Assets/_Project/Prefabs/VFX/PREF_VFX_Guard_State.prefab
    Resource: {fileID: 1437125584137383549, guid: c02df9cead0ce2d45baecf85cf904dee,
      type: 3}
  - Key: Assets/_Project/Prefabs/VFX/PREF_VFX_Haste_State.prefab
    Resource: {fileID: 7511422612086039424, guid: 986b532e40d72764ca964010c2151234,
      type: 3}
  - Key: Assets/_Project/Prefabs/Controllers/Units/Heroes/PREF_C_Hero_Hercules.prefab
    Resource: {fileID: 2535187798735608123, guid: a0eaa84a5f748574cb9cb50822cba59a,
      type: 3}
  - Key: Assets/_Project/Prefabs/Controllers/Units/Heroes/PREF_C_Hero_Chiron.prefab
    Resource: {fileID: 8144714801820554079, guid: 3207c0383e0cafe4a8ac1e2dad0b9833,
      type: 3}
  - Key: Assets/_External/tfc-assets/UI/Textures/Icons/Actions/T_UI_Icon_Action_Attack.png
    Resource: {fileID: 21300000, guid: eb829e0591b00c0449fc50043aff100b, type: 3}
  - Key: Assets/_External/tfc-assets/UI/Textures/Icons/Actions/T_UI_Icon_Action_Buff.png
    Resource: {fileID: 21300000, guid: 25168606c5df9044d8328921ef26f5aa, type: 3}
  - Key: Assets/_External/tfc-assets/UI/Textures/Icons/Actions/T_UI_Icon_Action_Debuff.png
    Resource: {fileID: 21300000, guid: 39c70f1ede5125746b86e85b39c7734d, type: 3}
  - Key: Assets/_External/tfc-assets/UI/Textures/Icons/Actions/T_UI_Icon_Action_Heal.png
    Resource: {fileID: 21300000, guid: 941063e4a1cae9946bd2e1410786b04e, type: 3}
  - Key: Assets/_External/tfc-assets/UI/Textures/Cards/Illustrations/T_UI_Card_Illustration_01.png
    Resource: {fileID: 21300000, guid: ab41c97b3a6953a42b806d9b5e7ca941, type: 3}
  - Key: Assets/_External/tfc-assets/UI/Textures/Cards/Illustrations/T_UI_Card_Illustration_02.png
    Resource: {fileID: 21300000, guid: 6be0056854007004a9ab03b420d476aa, type: 3}
  - Key: Assets/_External/tfc-assets/UI/Textures/Cards/Illustrations/T_UI_Card_Illustration_03.png
    Resource: {fileID: 21300000, guid: f4d1f2f042c1a9146988bb231076aaf3, type: 3}
  - Key: Assets/_External/tfc-assets/UI/Textures/Cards/Illustrations/T_UI_Card_Illustration_04.png
    Resource: {fileID: 21300000, guid: e25607f868014fc48b250e410715938b, type: 3}
  - Key: Assets/_External/tfc-assets/UI/Textures/Cards/Illustrations/T_UI_Card_Illustration_05.png
    Resource: {fileID: 21300000, guid: e632be21c1ee9cd4892fa05daf9f5465, type: 3}
  - Key: Assets/_External/tfc-assets/UI/Textures/Cards/Illustrations/T_UI_Card_Illustration_06.png
    Resource: {fileID: 21300000, guid: 99fac4189fccc1046a3e023c0660fe21, type: 3}
  - Key: Assets/_External/tfc-assets/UI/Textures/Cards/Illustrations/T_UI_Card_Illustration_07.png
    Resource: {fileID: 21300000, guid: ba838ba88293c3d41923cefbdbd2181a, type: 3}
  - Key: Assets/_External/tfc-assets/UI/Textures/Cards/Illustrations/T_UI_Card_Illustration_08.png
    Resource: {fileID: 21300000, guid: 14e2535161a45dd46845643b09f4f48c, type: 3}
  - Key: Assets/_External/tfc-assets/UI/Textures/Cards/Illustrations/T_UI_Card_Illustration_09.png
    Resource: {fileID: 21300000, guid: 88d4b3aeb8c0af84499d254e3e96b478, type: 3}
  - Key: Assets/_External/tfc-assets/UI/Textures/Cards/Illustrations/T_UI_Card_Illustration_10.png
    Resource: {fileID: 21300000, guid: 6a565ced4ca35d84a9623a241cad6ab9, type: 3}
  - Key: Assets/_External/tfc-assets/UI/Textures/Cards/Illustrations/T_UI_Card_Illustration_11.png
    Resource: {fileID: 21300000, guid: 89bd7db02a4303842be93bca8d9f2475, type: 3}
  - Key: Assets/_External/tfc-assets/UI/Textures/Cards/Illustrations/T_UI_Card_Illustration_12.png
    Resource: {fileID: 21300000, guid: dfc15ded4d38e644b92ac020d972831f, type: 3}
  - Key: Assets/_External/tfc-assets/UI/Textures/Cards/Illustrations/T_UI_Card_Illustration_13.png
    Resource: {fileID: 21300000, guid: 4ed2d73553aa7274fb6f6ead237b39c5, type: 3}
  - Key: Assets/_External/tfc-assets/UI/Textures/Cards/Illustrations/T_UI_Card_Illustration_14.png
    Resource: {fileID: 21300000, guid: f9d4d67c49ea59d41a8e85ff65b182d4, type: 3}
  - Key: Assets/_External/tfc-assets/UI/Textures/Cards/Illustrations/T_UI_Card_Illustration_15.png
    Resource: {fileID: 21300000, guid: b862998c64d0a5d408cf9a9b394d1222, type: 3}
  - Key: Assets/_External/tfc-assets/UI/Textures/Cards/Illustrations/T_UI_Card_Illustration_16.png
    Resource: {fileID: 21300000, guid: 54de682adff543649beccab0bc14d451, type: 3}
  - Key: Assets/_External/tfc-assets/UI/Textures/Cards/Illustrations/T_UI_Card_Illustration_17.png
    Resource: {fileID: 21300000, guid: 4bbd5f2a93e3dcf4aa4ba6e300bc8a23, type: 3}
  - Key: Assets/_External/tfc-assets/UI/Textures/Cards/Illustrations/T_UI_Card_Illustration_18.png
    Resource: {fileID: 21300000, guid: ce58b8bb450ccdb4ba48783356ea1711, type: 3}
  - Key: Assets/_External/tfc-assets/UI/Textures/Cards/Illustrations/T_UI_Card_Illustration_19.png
    Resource: {fileID: 21300000, guid: 5643afea4044fdd42ab73690750e9eee, type: 3}
  - Key: Assets/_External/tfc-assets/UI/Textures/Cards/Illustrations/T_UI_Card_Illustration_20.png
    Resource: {fileID: 21300000, guid: 5934b28122a500242acbd1f4d40eb547, type: 3}
  - Key: Assets/_External/tfc-assets/UI/Textures/Cards/Illustrations/T_UI_Card_Illustration_21.png
    Resource: {fileID: 21300000, guid: 22ad25e3c454c4449bbec2a9c7fde128, type: 3}
  - Key: Assets/_External/tfc-assets/UI/Textures/Cards/Illustrations/T_UI_Card_Illustration_22.png
    Resource: {fileID: 21300000, guid: 60ac6a9ab79c8bd48976e179895ad26f, type: 3}
  - Key: Assets/_External/tfc-assets/UI/Textures/Cards/Illustrations/T_UI_Card_Illustration_23.png
    Resource: {fileID: 21300000, guid: 0f258ae05932efd4ea82637c34a74f58, type: 3}
  - Key: Assets/_External/tfc-assets/UI/Textures/Cards/Illustrations/T_UI_Card_Illustration_24.png
    Resource: {fileID: 21300000, guid: ec1711468cb65b347abb15c2026753c8, type: 3}
  - Key: Assets/_External/tfc-assets/UI/Textures/Cards/Illustrations/T_UI_Card_Illustration_25.png
    Resource: {fileID: 21300000, guid: 0422b655636712d4f9e1efc98b9f5c8f, type: 3}
  - Key: Assets/_External/tfc-assets/UI/Textures/Cards/Illustrations/T_UI_Card_Illustration_26.png
    Resource: {fileID: 21300000, guid: 4ede1d63ed8d1e241bc26e55c02be832, type: 3}
  - Key: Assets/_External/tfc-assets/UI/Textures/Cards/Illustrations/T_UI_Card_Illustration_27.png
    Resource: {fileID: 21300000, guid: 27c5761f2cc23744ea8aa9772599c0f2, type: 3}
  - Key: Assets/_External/tfc-assets/UI/Textures/Cards/Illustrations/T_UI_Card_Illustration_28.png
    Resource: {fileID: 21300000, guid: af685bfcbaca68046a18382490e34d07, type: 3}
  - Key: Assets/_Project/Prefabs/Controllers/Units/Enemies/PREF_C_Enemy_GV1.prefab
    Resource: {fileID: 6224879980971669443, guid: 5dfc143f3be3f2945b0917cabcb591d8,
      type: 3}
  - Key: Assets/_Project/Prefabs/Controllers/Units/Enemies/PREF_C_Enemy_GV2.prefab
    Resource: {fileID: 3404384314955645067, guid: ecafd8e69e8a35240b7330d33414f1d1,
      type: 3}
  - Key: Assets/_Project/Prefabs/Controllers/Units/Enemies/PREF_C_Enemy_GV3.prefab
    Resource: {fileID: 767669131608376817, guid: 1baf31cee0640694093368b92c2f7ab4,
      type: 3}
  - Key: Assets/_Project/Prefabs/Controllers/Units/Enemies/PREF_C_Enemy_HV1.prefab
    Resource: {fileID: 2321350898834827763, guid: ca8f9cdd5dfa0bc4782935b0f33531d0,
      type: 3}
  - Key: Assets/_Project/Prefabs/Controllers/Units/Enemies/PREF_C_Enemy_HV2.prefab
    Resource: {fileID: 3728773071749060743, guid: 5563c94ecf8301f4bba0b2b9b5fd9bbb,
      type: 3}
  - Key: Assets/_Project/Prefabs/Controllers/Units/Enemies/PREF_C_Enemy_HV3.prefab
    Resource: {fileID: 5721495388847573675, guid: 973f333f86cda044e923036e63080fe3,
      type: 3}
  - Key: Assets/_Project/Prefabs/Controllers/Units/Enemies/PREF_C_Enemy_HV4.prefab
    Resource: {fileID: 9195181041399109680, guid: 23e269d86ab48164bbc645990d3b6582,
      type: 3}
  - Key: Assets/_Project/Prefabs/Controllers/Units/Enemies/PREF_C_Enemy_MM.prefab
    Resource: {fileID: 6054451879150340481, guid: ab72e839a3f1a8f42bec697b00fccfcc,
      type: 3}
  - Key: Assets/_Project/Prefabs/Controllers/Units/Enemies/PREF_C_Enemy_SV1.prefab
    Resource: {fileID: 6387975304366399473, guid: bd730fa5fa7441343b691df406102eab,
      type: 3}
  - Key: Assets/_Project/Prefabs/Controllers/Units/Enemies/PREF_C_Enemy_SV2.prefab
    Resource: {fileID: 1641299381655522508, guid: 588920beb762c9342aed80fec29df8e7,
      type: 3}
  - Key: Assets/_Project/Prefabs/Controllers/Units/Enemies/PREF_C_Enemy_SV3.prefab
    Resource: {fileID: 3091142808867426101, guid: 4bdfd245947d150458e39de6babcbb23,
      type: 3}
  - Key: Assets/_Project/Prefabs/Controllers/Units/Enemies/PREF_C_Enemy_SV4.prefab
    Resource: {fileID: 4477563445160041348, guid: e8737724538622c4c9ae6e78ed7c4905,
      type: 3}
  - Key: Assets/_Project/ScriptableObjects/Sentinels/SentinelEffects/SO_SE_Timeframe_DamageModifier_Morgus.asset
    Resource: {fileID: 11400000, guid: 7623f7c314bc6c14a8459adeef6201aa, type: 2}
  - Key: Assets/_Project/ScriptableObjects/Sentinels/SentinelEffects/SO_SE_Timeframe_DamageModifier_Phebios.asset
    Resource: {fileID: 11400000, guid: 7c045419c3694b143a61705352d09e07, type: 2}
  - Key: Assets/_Project/ScriptableObjects/Sentinels/SentinelData/SO_SI_Morgus.asset
    Resource: {fileID: 11400000, guid: 0d99cf211bcf0694888081fde17c185d, type: 2}
  - Key: Assets/_Project/ScriptableObjects/Sentinels/SentinelData/SO_SI_Phebios.asset
    Resource: {fileID: 11400000, guid: 076341ae3576d814d9d8ac10bff2b5bb, type: 2}
  - Key: Assets/_External/tfc-assets/UI/Textures/Icons/Progression/T_UI_Icon_Progression_Combat_Boss.png
    Resource: {fileID: 21300000, guid: 6028ccdc73d1d0848b51189c3a53a21b, type: 3}
  - Key: Assets/_External/tfc-assets/UI/Textures/Icons/Progression/T_UI_Icon_Progression_Combat_T1.png
    Resource: {fileID: 21300000, guid: 0c5911cf4f1cc464792a5a6f84386ebc, type: 3}
  - Key: Assets/_External/tfc-assets/UI/Textures/Icons/Progression/T_UI_Icon_Progression_Combat_T2.png
    Resource: {fileID: 21300000, guid: c3cf902a72c4e6249bfe2a180c318b55, type: 3}
  - Key: Assets/_External/tfc-assets/UI/Textures/Icons/Progression/T_UI_Icon_Progression_Combat_T3.png
    Resource: {fileID: 21300000, guid: 13c4e1efa499d5a44983f313fb0ce74e, type: 3}
  - Key: Assets/_External/tfc-assets/UI/Textures/Icons/Progression/T_UI_Icon_Progression_Event.png
    Resource: {fileID: 21300000, guid: 89c911e0ae2811f4faf7b1fa573659aa, type: 3}
  - Key: Assets/_Project/ScriptableObjects/Progression/RewardPools/SO_RP_EndGame.asset
    Resource: {fileID: 11400000, guid: 32df6cd141694934d82457dacb2ea32b, type: 2}
  - Key: Assets/_Project/ScriptableObjects/Progression/RewardPools/SO_RP_Potion.asset
    Resource: {fileID: 11400000, guid: 84cb4ce6ff84ff546b45514957540dc8, type: 2}
  - Key: Assets/_Project/ScriptableObjects/Progression/RewardPools/SO_RP_Sentinels.asset
    Resource: {fileID: 11400000, guid: a7bb0677fb465fc459378b6ea84147cb, type: 2}
  - Key: Assets/_Project/ScriptableObjects/Progression/RewardPools/SO_RP_Tier1.asset
    Resource: {fileID: 11400000, guid: e624433cf6b4c6a4e88d743ab9a463c6, type: 2}
  - Key: Assets/_Project/ScriptableObjects/Progression/RewardPools/SO_RP_Tier2.asset
    Resource: {fileID: 11400000, guid: cf73a88ff30496849b8bb1868b2f6078, type: 2}
  - Key: Assets/_Project/ScriptableObjects/Progression/RewardPools/SO_RP_Tier3.asset
    Resource: {fileID: 11400000, guid: 40984fc17f34bae4fbccb5ea21528286, type: 2}
  - Key: Assets/_Project/ScriptableObjects/Sentinels/SentinelEffects/SO_SE_I_D_1.asset
    Resource: {fileID: 11400000, guid: 2c819ecad755dce429c1477fd19d39b6, type: 2}
  - Key: Assets/_Project/ScriptableObjects/Sentinels/SentinelEffects/SO_SE_I_C_6.asset
    Resource: {fileID: 11400000, guid: aa8da1aa7a5cc594ea467c3b70b14f06, type: 2}
  - Key: Assets/_Project/ScriptableObjects/Sentinels/SentinelEffects/SO_SE_M_B_2.asset
    Resource: {fileID: 11400000, guid: 37aed6d5b9112c04884c1930b1c3dcfc, type: 2}
  - Key: Assets/_Project/ScriptableObjects/Sentinels/SentinelEffects/SO_SE_M_B_3.asset
    Resource: {fileID: 11400000, guid: 29bf854e7eec41b498067f27b96accd5, type: 2}
  - Key: Assets/_Project/ScriptableObjects/Sentinels/SentinelEffects/SO_SE_M_M_4.asset
    Resource: {fileID: 11400000, guid: 9cc30bea9e86ef14e984d37575a52b92, type: 2}
  - Key: Assets/_Project/ScriptableObjects/Sentinels/SentinelEffects/SO_SE_M_M_5.asset
    Resource: {fileID: 11400000, guid: a9f107562f33b444eb77fc4c165a7c65, type: 2}
  - Key: Assets/_Project/ScriptableObjects/Sentinels/SentinelData/SO_SI_1.asset
    Resource: {fileID: 11400000, guid: 1a4a89cc4fcff5a40a75807ba7a97ab6, type: 2}
  - Key: Assets/_Project/ScriptableObjects/Sentinels/SentinelData/SO_SI_2.asset
    Resource: {fileID: 11400000, guid: ba326cb35c957d745899ae12d568b12e, type: 2}
  - Key: Assets/_Project/ScriptableObjects/Sentinels/SentinelData/SO_SI_3.asset
    Resource: {fileID: 11400000, guid: 908603c7803e66b4885852908cdee36d, type: 2}
  - Key: Assets/_Project/ScriptableObjects/Sentinels/SentinelData/SO_SI_4.asset
    Resource: {fileID: 11400000, guid: 35f45e242e123ab46bb76d13c4ee4a08, type: 2}
  - Key: Assets/_Project/ScriptableObjects/Sentinels/SentinelData/SO_SI_5.asset
    Resource: {fileID: 11400000, guid: 94813587b741cce43916c432db52c116, type: 2}
  - Key: Assets/_Project/ScriptableObjects/Sentinels/SentinelData/SO_SI_6.asset
    Resource: {fileID: 11400000, guid: a6ddcd6373d746e4086ba36caec256cb, type: 2}
  - Key: Assets/_External/tfc-assets/UI/Textures/Icons/Progression/T_UI_Icon_Progression_Loot.png
    Resource: {fileID: 21300000, guid: e6c5dd3148eb1634f945453fc2b2ae09, type: 3}
  - Key: Assets/_External/tfc-assets/UI/Textures/Units/Illustrations/T_UI_BG_Chiron_E.tga
    Resource: {fileID: -6455710237569507521, guid: f9813018c2d610340ab0c37bf7300c7e,
      type: 3}
  - Key: Assets/_External/tfc-assets/UI/Textures/Units/Illustrations/T_UI_BG_Hercules_E.tga
    Resource: {fileID: 1761758390047431134, guid: 8239d8ee8bdb8e24590db89c5371c1c9,
      type: 3}
  - Key: Assets/_Project/ScriptableObjects/Progression/RewardPools/SO_RP_T1_HC.asset
    Resource: {fileID: 11400000, guid: 0882037ced9d78a41a4eb775eb5f4ef2, type: 2}
  - Key: Assets/_Project/ScriptableObjects/Progression/RewardPools/SO_RP_T1_LC.asset
    Resource: {fileID: 11400000, guid: 3641f391a3124ab4b8bd3bd4c2f93b5c, type: 2}
  - Key: Assets/_Project/ScriptableObjects/Progression/RewardPools/SO_RP_T1_MC.asset
    Resource: {fileID: 11400000, guid: 21e0555a767980746a35dc185ef3dcaf, type: 2}
  - Key: Assets/_Project/ScriptableObjects/Progression/RewardPools/SO_RP_T1_TR.asset
    Resource: {fileID: 11400000, guid: 0ddf949300d9f7b468ce70da6d246453, type: 2}
  - Key: Assets/_Project/ScriptableObjects/Progression/RewardPools/SO_RP_T2_HC.asset
    Resource: {fileID: 11400000, guid: a8a4ea52fa3d19b4483fc73c4f130a57, type: 2}
  - Key: Assets/_Project/ScriptableObjects/Progression/RewardPools/SO_RP_T2_LC.asset
    Resource: {fileID: 11400000, guid: 78bc97582f6351e4b8e0646309ede4ce, type: 2}
  - Key: Assets/_Project/ScriptableObjects/Progression/RewardPools/SO_RP_T2_MC.asset
    Resource: {fileID: 11400000, guid: 7ac509af8f9dded47a6e63b04f0d83e2, type: 2}
  - Key: Assets/_Project/ScriptableObjects/Progression/RewardPools/SO_RP_T2_TR.asset
    Resource: {fileID: 11400000, guid: a74b019dee588fa4ea145d9a7d00feb0, type: 2}
  - Key: Assets/_Project/ScriptableObjects/Progression/RewardPools/SO_RP_T3_HC.asset
    Resource: {fileID: 11400000, guid: 1a974041f33164844a4532cae85eee1c, type: 2}
  - Key: Assets/_Project/ScriptableObjects/Progression/RewardPools/SO_RP_T3_LC.asset
    Resource: {fileID: 11400000, guid: 665a3b58bc4a8fd4a834d4e4560d1946, type: 2}
  - Key: Assets/_Project/ScriptableObjects/Progression/RewardPools/SO_RP_T3_MC.asset
    Resource: {fileID: 11400000, guid: ce9e07065e2a325448877e2b2290f9e7, type: 2}
  - Key: Assets/_External/tfc-assets/UI/Textures/Icons/Sentinels/T_UI_Icon_Sentinel_1.png
    Resource: {fileID: 21300000, guid: 4e2c6a1c85fe8214c9023eae1b3e77be, type: 3}
  - Key: Assets/_External/tfc-assets/UI/Textures/Icons/Sentinels/T_UI_Icon_Sentinel_2.png
    Resource: {fileID: 21300000, guid: 7302a9a695bd1054aaeb61e636222437, type: 3}
  - Key: Assets/_External/tfc-assets/UI/Textures/Icons/Sentinels/T_UI_Icon_Sentinel_3.png
    Resource: {fileID: 21300000, guid: 1084fee17da9c4e48aac9298be0a1c56, type: 3}
  - Key: Assets/_External/tfc-assets/UI/Textures/Icons/Sentinels/T_UI_Icon_Sentinel_4.png
    Resource: {fileID: 21300000, guid: 5c84e0e47e741d74281302cb91ade288, type: 3}
  - Key: Assets/_External/tfc-assets/UI/Textures/Icons/Sentinels/T_UI_Icon_Sentinel_5.png
    Resource: {fileID: 21300000, guid: de685accb55a3244baffaaf46bba909a, type: 3}
  - Key: Assets/_External/tfc-assets/UI/Textures/Icons/Sentinels/T_UI_Icon_Sentinel_6.png
    Resource: {fileID: 21300000, guid: bb4df16d8e27ef14686d39c58e28ec60, type: 3}
  - Key: Assets/_External/tfc-assets/UI/Textures/Icons/Sentinels/T_UI_Icon_Sentinel_7.png
    Resource: {fileID: 21300000, guid: 3f4c9d4dc2f090949a502f363fe32a8c, type: 3}
  - Key: Assets/_External/tfc-assets/UI/Textures/Icons/Sentinels/T_UI_Icon_Sentinel_8.png
    Resource: {fileID: 21300000, guid: 862dda166c88d374b95ed8d5354b0e65, type: 3}
  - Key: Assets/_External/tfc-assets/UI/Textures/Icons/Sentinels/T_UI_Icon_Sentinel_9.png
    Resource: {fileID: 21300000, guid: fcfe399398d1abe4b86a50748c7b5334, type: 3}
  - Key: Assets/_Project/Prefabs/Controllers/Units/Enemies/PREF_C_Enemy_MT.prefab
    Resource: {fileID: 6387975304366399473, guid: 1c1f115afbf73bb4bb9fab335fcc6626,
      type: 3}
  - Key: Assets/_Project/Prefabs/VFX/PREF_VFX_Slash.prefab
    Resource: {fileID: 2208468057651318636, guid: 4f8a3da21b07316418646be02703fd83,
      type: 3}
  - Key: Assets/_External/tfc-assets/UI/Textures/Icons/Timeline/T_UI_Icon_Timeline_Stagger.png
    Resource: {fileID: 21300000, guid: 358b7b76598f3a54698fcce5b2ca88e5, type: 3}
  - Key: Assets/_Project/Prefabs/VFX/PREF_VFX_Slash_Intercept.prefab
    Resource: {fileID: 2208468057651318636, guid: 38251c379db43ca459645db11011b13e,
      type: 3}
  - Key: Assets/_External/tfc-assets/UI/Textures/Icons/Sentinels/T_UI_Icon_Sentinel_1.tga
    Resource: {fileID: 21300000, guid: 23d8f69b98cdd5342bf344c55bb86dca, type: 3}
  - Key: Assets/_External/tfc-assets/UI/Textures/Icons/Sentinels/T_UI_Icon_Sentinel_2.tga
    Resource: {fileID: 21300000, guid: 6343609afa077ee449d175f77b5fa4ad, type: 3}
  - Key: Assets/_External/tfc-assets/UI/Textures/Icons/Sentinels/T_UI_Icon_Sentinel_3.tga
    Resource: {fileID: 21300000, guid: 0ccdfdec719f6614f9ff4cbf2b34bfe3, type: 3}
  - Key: Assets/_External/tfc-assets/UI/Textures/Icons/Sentinels/T_UI_Icon_Sentinel_4.tga
    Resource: {fileID: 21300000, guid: bd043ac5531fb3640a0002465dc11376, type: 3}
  - Key: Assets/_External/tfc-assets/UI/Textures/Icons/Sentinels/T_UI_Icon_Sentinel_5.tga
    Resource: {fileID: 21300000, guid: 0de1cc0736b0f8648b5ffe66a72490eb, type: 3}
  - Key: Assets/_External/tfc-assets/UI/Textures/Icons/Sentinels/T_UI_Icon_Sentinel_6.tga
    Resource: {fileID: 21300000, guid: 6339c9db050809044b97ece853082435, type: 3}
  - Key: Assets/_External/tfc-assets/UI/Textures/Panels/Sentinel/T_UI_Sentinel_Slot_Full.png
    Resource: {fileID: 21300000, guid: b0e66e66a8e198b488708f330b769286, type: 3}
  - Key: Assets/_External/tfc-assets/UI/Textures/Cards/Illustrations/T_UI_Card_Illustration_HR_H_S_1.tga
    Resource: {fileID: 21300000, guid: c686baf6c7768e640835141d3c37b1cf, type: 3}
  - Key: Assets/_External/tfc-assets/UI/Textures/Cards/Illustrations/T_UI_Card_Illustration_HR_H_S_2.tga
    Resource: {fileID: 21300000, guid: a936d916d9968c045ab49dc3fa68bbe7, type: 3}
  - Key: Assets/_External/tfc-assets/UI/Textures/Cards/Illustrations/T_UI_Card_Illustration_HR_H_S_3.png
    Resource: {fileID: 21300000, guid: 3a52bd6622fd05843b0b6d6604270484, type: 3}
  - Key: Assets/_External/tfc-assets/UI/Textures/Cards/Illustrations/T_UI_Card_Illustration_HR_H_S_4.tga
    Resource: {fileID: 21300000, guid: 2e8b6ff86add1374098a29259e10f5ba, type: 3}
  - Key: Assets/_External/tfc-assets/UI/Textures/Cards/Illustrations/T_UI_Card_Illustration_HR_H_S_5.png
    Resource: {fileID: 21300000, guid: f7ff40e119e9c064581acf6e1c77f51d, type: 3}
  - Key: Assets/_External/tfc-assets/UI/Textures/Cards/Illustrations/T_UI_Card_Illustration_HR_H_S_6.tga
    Resource: {fileID: 21300000, guid: beb6336d87d65f94387131153184f344, type: 3}
  - Key: Assets/_Project/Prefabs/VFX/PREF_VFX_Melee_Ground_Attack.prefab
    Resource: {fileID: 508082364764818596, guid: e93dcf833c28b9747a6dda1ea0adadc1,
      type: 3}
  - Key: Assets/_Project/Prefabs/VFX/VFX_Slash_Heroes.prefab
    Resource: {fileID: 3681072181244033818, guid: 31998021e53a7ab4093ac05957afdf64,
      type: 3}
  - Key: Assets/_Project/Prefabs/VFX/VFX_Slash_Enemies.prefab
    Resource: {fileID: 3995778289331015898, guid: 380d138f398e5f0418274cb7741ae218,
      type: 3}
  - Key: Assets/_External/tfc-assets/UI/Textures/Icons/Heroes/T_UI_Icon_Hero_Chiron.png
    Resource: {fileID: 21300000, guid: 2f6bffab58d0792488a0a827d0991b79, type: 3}
  - Key: Assets/_External/tfc-assets/UI/Textures/Icons/Heroes/T_UI_Icon_Hero_Hercules.png
    Resource: {fileID: 21300000, guid: e0be1cc3a2166ec4594332ae38db47de, type: 3}
  - Key: Assets/_External/tfc-assets/UI/Textures/Units/Portraits/Heroes/T_UI_Portrait_Hero_Chiron.png
    Resource: {fileID: 21300000, guid: 5d8aa7c93b699174e81d30d1803fa52e, type: 3}
  - Key: Assets/_External/tfc-assets/UI/Textures/Units/Portraits/Heroes/T_UI_Portrait_Hero_Hercules.png
    Resource: {fileID: 21300000, guid: b1e10a00eb3b95e49b97736721254108, type: 3}
  - Key: Assets/_External/tfc-assets/UI/Textures/Cards/Illustrations/T_UI_Card_Illustration_HR_AH_C_1.png
    Resource: {fileID: 21300000, guid: 49ed9e9d1726e784e983d1ac53bed2cc, type: 3}
  - Key: Assets/_External/tfc-assets/UI/Textures/Cards/Illustrations/T_UI_Card_Illustration_HR_AH_C_2.png
    Resource: {fileID: 21300000, guid: ce2b5c2366c84764c9def8441d3b3964, type: 3}
  - Key: Assets/_External/tfc-assets/UI/Textures/Cards/Illustrations/T_UI_Card_Illustration_HR_AH_C_4.png
    Resource: {fileID: 21300000, guid: c2c450752915bb348a46baeba6b5fd1b, type: 3}
  - Key: Assets/_External/tfc-assets/UI/Textures/Cards/Illustrations/T_UI_Card_Illustration_HR_AH_C_5.png
    Resource: {fileID: 21300000, guid: 8d693cd7e5ebdf9449cbcdac4164498f, type: 3}
  - Key: Assets/_External/tfc-assets/UI/Textures/Cards/Illustrations/T_UI_Card_Illustration_HR_AH_C_6.png
    Resource: {fileID: 21300000, guid: 4ad39dd0ef4d46446ba9094f29951cae, type: 3}
  - Key: Assets/_External/tfc-assets/UI/Textures/Cards/Illustrations/T_UI_Card_Illustration_HR_AH_C_7.png
    Resource: {fileID: 21300000, guid: db24e494aceb74d439329ba3e652d8c4, type: 3}
  - Key: Assets/_External/tfc-assets/UI/Textures/Cards/Illustrations/T_UI_Card_Illustration_HR_AH_C_8.png
    Resource: {fileID: 21300000, guid: 8f3597b29b96e6041a607d7a8c426a71, type: 3}
  - Key: Assets/_External/tfc-assets/UI/Textures/Cards/Illustrations/T_UI_Card_Illustration_HR_AH_M_1.png
    Resource: {fileID: 21300000, guid: 983887c44a6a6964ab6c8709309b556e, type: 3}
  - Key: Assets/_External/tfc-assets/UI/Textures/Cards/Illustrations/T_UI_Card_Illustration_HR_AH_R_1.png
    Resource: {fileID: 21300000, guid: ab23583e647cfd04e8fce31019e03e59, type: 3}
  - Key: Assets/_External/tfc-assets/UI/Textures/Cards/Illustrations/T_UI_Card_Illustration_HR_AH_R_2.png
    Resource: {fileID: 21300000, guid: 320c897692715b045b1dcae5ccf4f0b0, type: 3}
  - Key: Assets/_External/tfc-assets/UI/Textures/Cards/Illustrations/T_UI_Card_Illustration_HR_AH_R_3.png
    Resource: {fileID: 21300000, guid: b032341947938e846b55485ba3d01317, type: 3}
  - Key: Assets/_External/tfc-assets/UI/Textures/Cards/Illustrations/T_UI_Card_Illustration_HR_C_S_1.png
    Resource: {fileID: 21300000, guid: 5a535ad94e551454aadaf40896ab4bc5, type: 3}
  - Key: Assets/_External/tfc-assets/UI/Textures/Cards/Illustrations/T_UI_Card_Illustration_HR_C_S_2.png
    Resource: {fileID: 21300000, guid: f204714f1929bc24c90fe5cce0e6d1b3, type: 3}
  - Key: Assets/_External/tfc-assets/UI/Textures/Cards/Illustrations/T_UI_Card_Illustration_HR_C_S_3.png
    Resource: {fileID: 21300000, guid: fe78c11b10dd3374a9635dc083c180fc, type: 3}
  - Key: Assets/_External/tfc-assets/UI/Textures/Cards/Illustrations/T_UI_Card_Illustration_HR_C_S_4.png
    Resource: {fileID: 21300000, guid: af7ae1290dec9fe4fa19bbc8fe15cc64, type: 3}
  - Key: Assets/_External/tfc-assets/UI/Textures/Cards/Illustrations/T_UI_Card_Illustration_HR_C_S_5.png
    Resource: {fileID: 21300000, guid: 3aa035356f592624a85513a93de3eaa6, type: 3}
  - Key: Assets/_External/tfc-assets/UI/Textures/Cards/Illustrations/T_UI_Card_Illustration_HR_C_S_6.png
    Resource: {fileID: 21300000, guid: 9d0316170a828934d9174de299586cf2, type: 3}
  - Key: Assets/_External/tfc-assets/UI/Textures/Units/Illustrations/T_UI_BG_Chiron_E.png
    Resource: {fileID: 21300000, guid: 5541273e85fb34d41a71946c02faa4e4, type: 3}
  - Key: Assets/_External/tfc-assets/UI/Textures/Units/Illustrations/T_UI_BG_Hercules_E.png
    Resource: {fileID: 21300000, guid: 3af7e12a072c50d468ef3412c65c2725, type: 3}
  - Key: Assets/_Project/Prefabs/VFX/PREF_VFX_Arrow.prefab
    Resource: {fileID: 1482037204195316623, guid: 3cc9ec8392963da41b2d69008dff6a86,
      type: 3}
  - Key: Assets/_Project/Prefabs/VFX/PREF_VFX_ExplosiveArrow.prefab
    Resource: {fileID: 704833708982347340, guid: 27f2b930ce0e7c44e8b83859fe26de66,
      type: 3}
  - Key: Assets/_Project/Prefabs/VFX/PREF_VFX_ChargedArrow.prefab
    Resource: {fileID: 7727654523801951269, guid: aa873909cff3f6a44b8e7996ad64f51e,
      type: 3}
  - Key: Assets/_Project/Prefabs/VFX/PREF_VFX_Att_Enemy.prefab
    Resource: {fileID: 858670763354044388, guid: 53068dad6ff537941bade7dd124736e6,
      type: 3}
  - Key: Assets/_External/tfc-assets/UI/Textures/Cards/Illustrations/T_UI_Card_Illustration_HR_AH_C_3.png
    Resource: {fileID: 21300000, guid: 84762bd5ca07a724b8c18051e435a244, type: 3}
  - Key: Assets/_External/tfc-assets/UI/Textures/Cards/Illustrations/T_UI_Card_Illustration_HR_C_C_1.png
    Resource: {fileID: 21300000, guid: f0a3ea9926029b749bb04c65004e902a, type: 3}
  - Key: Assets/_External/tfc-assets/UI/Textures/Cards/Illustrations/T_UI_Card_Illustration_HR_C_C_2.png
    Resource: {fileID: 21300000, guid: a769acb50f73e284fb82436b8ec05b97, type: 3}
  - Key: Assets/_External/tfc-assets/UI/Textures/Cards/Illustrations/T_UI_Card_Illustration_HR_C_C_3.png
    Resource: {fileID: 21300000, guid: 655a53018707d05409c0cf19d8406bcc, type: 3}
  - Key: Assets/_External/tfc-assets/UI/Textures/Cards/Illustrations/T_UI_Card_Illustration_HR_C_C_4.png
    Resource: {fileID: 21300000, guid: 45c35c3deb4141647ab2b839a125700a, type: 3}
  - Key: Assets/_External/tfc-assets/UI/Textures/Cards/Illustrations/T_UI_Card_Illustration_HR_C_C_5.png
    Resource: {fileID: 21300000, guid: 7946c2d0010ec2948a51272fdf4757de, type: 3}
  - Key: Assets/_External/tfc-assets/UI/Textures/Cards/Illustrations/T_UI_Card_Illustration_HR_C_C_6.png
    Resource: {fileID: 21300000, guid: 3449f94fa2d4de3439c4caddd3556e44, type: 3}
  - Key: Assets/_External/tfc-assets/UI/Textures/Cards/Illustrations/T_UI_Card_Illustration_HR_C_C_7.png
    Resource: {fileID: 21300000, guid: fe30d6bb3a6dc7b47a75e4cb58bacf52, type: 3}
  - Key: Assets/_External/tfc-assets/UI/Textures/Cards/Illustrations/T_UI_Card_Illustration_HR_C_C_8.png
    Resource: {fileID: 21300000, guid: ac34509dbbe8961408c0ddb0719f12cc, type: 3}
  - Key: Assets/_External/tfc-assets/UI/Textures/Cards/Illustrations/T_UI_Card_Illustration_HR_C_M_1.png
    Resource: {fileID: 21300000, guid: f5468b16b6a23fe4b8d181c546ca2e23, type: 3}
  - Key: Assets/_External/tfc-assets/UI/Textures/Cards/Illustrations/T_UI_Card_Illustration_HR_C_R_1.png
    Resource: {fileID: 21300000, guid: 5311964744a63b1438b23fd0ef5a1b46, type: 3}
  - Key: Assets/_External/tfc-assets/UI/Textures/Cards/Illustrations/T_UI_Card_Illustration_HR_C_R_2.png
    Resource: {fileID: 21300000, guid: b42c82367b3d33546bc53be88ae9d80b, type: 3}
  - Key: Assets/_External/tfc-assets/UI/Textures/Cards/Illustrations/T_UI_Card_Illustration_HR_C_R_3.png
    Resource: {fileID: 21300000, guid: 3803e3149a4670c4a84ffef6103e6177, type: 3}
  - Key: Assets/_External/tfc-assets/UI/Textures/Cards/Illustrations/T_UI_Card_Illustration_HR_H_C_1.png
    Resource: {fileID: 21300000, guid: c0baf08324181f241bf81263ee74ec06, type: 3}
  - Key: Assets/_External/tfc-assets/UI/Textures/Cards/Illustrations/T_UI_Card_Illustration_HR_H_C_2.png
    Resource: {fileID: 21300000, guid: 0f24ccc45bf40a54c8542b0e81107507, type: 3}
  - Key: Assets/_External/tfc-assets/UI/Textures/Cards/Illustrations/T_UI_Card_Illustration_HR_H_C_3.png
    Resource: {fileID: 21300000, guid: 88aa9e7cfa5f56a41982822115d8e181, type: 3}
  - Key: Assets/_External/tfc-assets/UI/Textures/Cards/Illustrations/T_UI_Card_Illustration_HR_H_C_4.png
    Resource: {fileID: 21300000, guid: d9a6ef08f3f19f9478124bdd4a19fa38, type: 3}
  - Key: Assets/_External/tfc-assets/UI/Textures/Cards/Illustrations/T_UI_Card_Illustration_HR_H_C_5.png
    Resource: {fileID: 21300000, guid: c5d5758a211d34744872bf8d9790bd31, type: 3}
  - Key: Assets/_External/tfc-assets/UI/Textures/Cards/Illustrations/T_UI_Card_Illustration_HR_H_C_6.png
    Resource: {fileID: 21300000, guid: 60c8c709be672d5428e8d3c94251f610, type: 3}
  - Key: Assets/_External/tfc-assets/UI/Textures/Cards/Illustrations/T_UI_Card_Illustration_HR_H_C_7.png
    Resource: {fileID: 21300000, guid: 94ac649336c911e489c7771a82851f8d, type: 3}
  - Key: Assets/_External/tfc-assets/UI/Textures/Cards/Illustrations/T_UI_Card_Illustration_HR_H_C_8.png
    Resource: {fileID: 21300000, guid: 301abe463a76358499d30345fd335d73, type: 3}
  - Key: Assets/_External/tfc-assets/UI/Textures/Cards/Illustrations/T_UI_Card_Illustration_HR_H_M_1.png
    Resource: {fileID: 21300000, guid: 65c20e5d5ee853643b76327e3170c6ca, type: 3}
  - Key: Assets/_External/tfc-assets/UI/Textures/Cards/Illustrations/T_UI_Card_Illustration_HR_H_R_1.png
    Resource: {fileID: 21300000, guid: b87a959067da80b489903e5cdfc428d5, type: 3}
  - Key: Assets/_External/tfc-assets/UI/Textures/Cards/Illustrations/T_UI_Card_Illustration_HR_H_R_2.png
    Resource: {fileID: 21300000, guid: d2cabfe41c10ccb4b921f230e6826cba, type: 3}
  - Key: Assets/_External/tfc-assets/UI/Textures/Cards/Illustrations/T_UI_Card_Illustration_HR_H_R_3.png
    Resource: {fileID: 21300000, guid: 224641524bbee5048bba837d31b30a71, type: 3}
  - Key: Assets/_External/tfc-assets/UI/Textures/Cards/Illustrations/T_UI_Card_Illustration_HR_H_S_1.png
    Resource: {fileID: 21300000, guid: 1cf76ee549fea244db723a3e2b6764d8, type: 3}
  - Key: Assets/_External/tfc-assets/UI/Textures/Cards/Illustrations/T_UI_Card_Illustration_HR_H_S_2.png
    Resource: {fileID: 21300000, guid: c88c0956553c8f249af016d8af372c68, type: 3}
  - Key: Assets/_External/tfc-assets/UI/Textures/Cards/Illustrations/T_UI_Card_Illustration_HR_H_S_4.png
    Resource: {fileID: 21300000, guid: 67b4acf6864d73d4baedebfb9d450a46, type: 3}
  - Key: Assets/_External/tfc-assets/UI/Textures/Cards/Illustrations/T_UI_Card_Illustration_HR_H_S_6.png
    Resource: {fileID: 21300000, guid: 019f97b7362d6f345bb1d115a732034c, type: 3}
  - Key: Assets/_Project/Prefabs/VFX/PREF_VFX_Miasma_Application.prefab
    Resource: {fileID: 7061236074701214491, guid: 54b22160ca2343a4c9fb28511f657d3f,
      type: 3}
  - Key: Assets/_External/tfc-assets/UI/Textures/Cards/Illustrations/T_UI_Card_Illustration_EN_G_ATK1.png
    Resource: {fileID: 21300000, guid: af46d2295570ae148b72a54706c84c3b, type: 3}
  - Key: Assets/_External/tfc-assets/UI/Textures/Cards/Illustrations/T_UI_Card_Illustration_EN_G_ATK2.png
    Resource: {fileID: 21300000, guid: 0e6b122f612a1e548b6b5a6ba833d3a4, type: 3}
  - Key: Assets/_External/tfc-assets/UI/Textures/Cards/Illustrations/T_UI_Card_Illustration_EN_G_ATK3.png
    Resource: {fileID: 21300000, guid: 397542d066e30cf4a91bdc2d0ef75ff3, type: 3}
  - Key: Assets/_External/tfc-assets/UI/Textures/Cards/Illustrations/T_UI_Card_Illustration_EN_G_ATK4.png
    Resource: {fileID: 21300000, guid: 6fe9776ede77cfe47b7162f6bb5bd367, type: 3}
  - Key: Assets/_External/tfc-assets/UI/Textures/Cards/Illustrations/T_UI_Card_Illustration_EN_G_ATK5.png
    Resource: {fileID: 21300000, guid: 2052c6b4b3acb624e8f3d3dbe0c37855, type: 3}
  - Key: Assets/_External/tfc-assets/UI/Textures/Cards/Illustrations/T_UI_Card_Illustration_EN_G_DBF1.png
    Resource: {fileID: 21300000, guid: ab138b073fbe0f649afd4aac79064638, type: 3}
  - Key: Assets/_External/tfc-assets/UI/Textures/Cards/Illustrations/T_UI_Card_Illustration_EN_G_DBF2.png
    Resource: {fileID: 21300000, guid: ab0853f50de95a047b22ea22c77ad0b8, type: 3}
  - Key: Assets/_External/tfc-assets/UI/Textures/Cards/Illustrations/T_UI_Card_Illustration_EN_G_DBF3.png
    Resource: {fileID: 21300000, guid: 9f0c40787df32914d82a34a08ae93ba7, type: 3}
  - Key: Assets/_External/tfc-assets/UI/Textures/Cards/Illustrations/T_UI_Card_Illustration_EN_H_ATK1.png
    Resource: {fileID: 21300000, guid: 654e8147647d5594abc03e50133e6746, type: 3}
  - Key: Assets/_External/tfc-assets/UI/Textures/Cards/Illustrations/T_UI_Card_Illustration_EN_H_ATK2.png
    Resource: {fileID: 21300000, guid: 1f6757e512da4624086259e649056bc1, type: 3}
  - Key: Assets/_External/tfc-assets/UI/Textures/Cards/Illustrations/T_UI_Card_Illustration_EN_H_ATK3.png
    Resource: {fileID: 21300000, guid: a746699112b8c5b49aef38fe995e5619, type: 3}
  - Key: Assets/_External/tfc-assets/UI/Textures/Cards/Illustrations/T_UI_Card_Illustration_EN_H_ATK4.png
    Resource: {fileID: 21300000, guid: 0d18767260e7f5c479c69a4ef8be480f, type: 3}
  - Key: Assets/_External/tfc-assets/UI/Textures/Cards/Illustrations/T_UI_Card_Illustration_EN_H_ATK5.png
    Resource: {fileID: 21300000, guid: a8378575894bc4b45936a8426e1f3702, type: 3}
  - Key: Assets/_External/tfc-assets/UI/Textures/Cards/Illustrations/T_UI_Card_Illustration_EN_H_ATK6.png
    Resource: {fileID: 21300000, guid: 62dd1746aa6607b4eae0bb2e5e823d5b, type: 3}
  - Key: Assets/_External/tfc-assets/UI/Textures/Cards/Illustrations/T_UI_Card_Illustration_EN_MM_ATK1.png
    Resource: {fileID: 21300000, guid: 6f6cc5665ba6eda4abe4d5aedbb33b1e, type: 3}
  - Key: Assets/_External/tfc-assets/UI/Textures/Cards/Illustrations/T_UI_Card_Illustration_EN_MM_ATK2.png
    Resource: {fileID: 21300000, guid: 1c5a166d7f2aeea478ea9f17933f33fe, type: 3}
  - Key: Assets/_External/tfc-assets/UI/Textures/Cards/Illustrations/T_UI_Card_Illustration_EN_MM_ATK3.png
    Resource: {fileID: 21300000, guid: 8150e4c5fdb6003488c294c7c08a9e43, type: 3}
  - Key: Assets/_External/tfc-assets/UI/Textures/Cards/Illustrations/T_UI_Card_Illustration_EN_MM_ATK4.png
    Resource: {fileID: 21300000, guid: 8170473a47f18be4fac91d7c1e9d6ec2, type: 3}
  - Key: Assets/_External/tfc-assets/UI/Textures/Cards/Illustrations/T_UI_Card_Illustration_EN_MM_ATK5.png
    Resource: {fileID: 21300000, guid: 3cef5ebc44cadc04dbdcd6b55589c7a3, type: 3}
  - Key: Assets/_External/tfc-assets/UI/Textures/Cards/Illustrations/T_UI_Card_Illustration_EN_MM_ATK6.png
    Resource: {fileID: 21300000, guid: 72d86985cf3d8d044be39f06e91c09e0, type: 3}
  - Key: Assets/_External/tfc-assets/UI/Textures/Cards/Illustrations/T_UI_Card_Illustration_EN_MM_ATK7.png
    Resource: {fileID: 21300000, guid: 8976649f8c2e10c4b8090146a7990e3c, type: 3}
  - Key: Assets/_External/tfc-assets/UI/Textures/Cards/Illustrations/T_UI_Card_Illustration_EN_MM_BF1.png
    Resource: {fileID: 21300000, guid: c6cfdd0f3044c0944b7caa01c36268f3, type: 3}
  - Key: Assets/_External/tfc-assets/UI/Textures/Cards/Illustrations/T_UI_Card_Illustration_EN_MM_BF2.png
    Resource: {fileID: 21300000, guid: a2e09b2b28b2b054a9fe3b21a56e107a, type: 3}
  - Key: Assets/_External/tfc-assets/UI/Textures/Cards/Illustrations/T_UI_Card_Illustration_EN_MM_DBF1.png
    Resource: {fileID: 21300000, guid: d9b3dd4dd81ae3d4eb3b068b973a6840, type: 3}
  - Key: Assets/_External/tfc-assets/UI/Textures/Cards/Illustrations/T_UI_Card_Illustration_EN_MT_ATK1.png
    Resource: {fileID: 21300000, guid: 882a63828294fa04a8b70c720dfab1fc, type: 3}
  - Key: Assets/_External/tfc-assets/UI/Textures/Cards/Illustrations/T_UI_Card_Illustration_EN_MT_ATK2.png
    Resource: {fileID: 21300000, guid: f1b5a023b6d197b448e306b926d93e6e, type: 3}
  - Key: Assets/_External/tfc-assets/UI/Textures/Cards/Illustrations/T_UI_Card_Illustration_EN_MT_ATK3.png
    Resource: {fileID: 21300000, guid: 6cac9c051340e2a45a8436f5a8ab4f23, type: 3}
  - Key: Assets/_External/tfc-assets/UI/Textures/Cards/Illustrations/T_UI_Card_Illustration_EN_MT_BF1.png
    Resource: {fileID: 21300000, guid: 05748851af6c6a54587e1d703793471e, type: 3}
  - Key: Assets/_External/tfc-assets/UI/Textures/Cards/Illustrations/T_UI_Card_Illustration_EN_MT_DBF1.png
    Resource: {fileID: 21300000, guid: a83dea51bf5aefd4e9b73dd7cf92d127, type: 3}
  - Key: Assets/_External/tfc-assets/UI/Textures/Cards/Illustrations/T_UI_Card_Illustration_EN_S_ATK1.png
    Resource: {fileID: 21300000, guid: 6b8cc779f5f4601429ad8f96dac6d49d, type: 3}
  - Key: Assets/_External/tfc-assets/UI/Textures/Cards/Illustrations/T_UI_Card_Illustration_EN_S_ATK2.png
    Resource: {fileID: 21300000, guid: f2224a180c4f0b0498486a25b04e6eb0, type: 3}
  - Key: Assets/_External/tfc-assets/UI/Textures/Cards/Illustrations/T_UI_Card_Illustration_EN_S_ATK3.png
    Resource: {fileID: 21300000, guid: 1dc4673e0f225194f9a7cc622aef36a4, type: 3}
  - Key: Assets/_External/tfc-assets/UI/Textures/Cards/Illustrations/T_UI_Card_Illustration_EN_S_BF1.png
    Resource: {fileID: 21300000, guid: 58b57f8051e1fe640978909b6bc0d79c, type: 3}
  - Key: Assets/_External/tfc-assets/UI/Textures/Cards/Illustrations/T_UI_Card_Illustration_EN_S_DBF1.png
    Resource: {fileID: 21300000, guid: 44fc3087015edf341ae8f5459bbc2be4, type: 3}
  - Key: Assets/_External/tfc-assets/UI/Textures/Cards/Illustrations/T_UI_Card_Illustration_EN_S_DBF2.png
    Resource: {fileID: 21300000, guid: 336585a3747a7be46be90bca828051fd, type: 3}
  - Key: Assets/_External/tfc-assets/UI/Textures/Icons/Timeline/T_UI_Icon_Timeline_Enemy_Stagger.png
    Resource: {fileID: 21300000, guid: 3aa673302182d1e4fbe11ca7c13a0161, type: 3}
  - Key: Assets/_External/tfc-assets/UI/Textures/Icons/Timeline/T_UI_Icon_Timeline_Intercept.png
    Resource: {fileID: 21300000, guid: 344dcaa446e87ff4f85739b838387af6, type: 3}
  - Key: Assets/_External/tfc-assets/UI/Textures/Units/Portraits/Enemies/T_UI_Arpy1.png
    Resource: {fileID: 21300000, guid: 5bf2f8b523dd3e941beeccd7f782da70, type: 3}
  - Key: Assets/_External/tfc-assets/UI/Textures/Units/Portraits/Enemies/T_UI_Arpy2.png
    Resource: {fileID: 21300000, guid: c38d0db9087db8d4fb47893c56852ade, type: 3}
  - Key: Assets/_External/tfc-assets/UI/Textures/Units/Portraits/Enemies/T_UI_Arpy3.png
    Resource: {fileID: 21300000, guid: f6ecb7af75bb03945be4a7a52e95ef5b, type: 3}
  - Key: Assets/_External/tfc-assets/UI/Textures/Units/Portraits/Enemies/T_UI_Arpy4.png
    Resource: {fileID: 21300000, guid: 2acbe357d7bcbfa4ba003970c243d3b0, type: 3}
  - Key: Assets/_External/tfc-assets/UI/Textures/Units/Portraits/Enemies/T_UI_Gorgon1.png
    Resource: {fileID: 21300000, guid: a42b23006df4c8c40b3b9f986f87fb41, type: 3}
  - Key: Assets/_External/tfc-assets/UI/Textures/Units/Portraits/Enemies/T_UI_Gorgon2.png
    Resource: {fileID: 21300000, guid: ba979732031f1e34d802783ee4902861, type: 3}
  - Key: Assets/_External/tfc-assets/UI/Textures/Units/Portraits/Enemies/T_UI_Gorgon3.png
    Resource: {fileID: 21300000, guid: 65d6b698d61d28b4ca9c9ba145b514f1, type: 3}
  - Key: Assets/_External/tfc-assets/UI/Textures/Units/Portraits/Enemies/T_UI_Mynotaur.png
    Resource: {fileID: 21300000, guid: 5522a005bb4c26a4fb90dfaf190eba1a, type: 3}
  - Key: Assets/_External/tfc-assets/UI/Textures/Units/Portraits/Enemies/T_UI_Satyr1.png
    Resource: {fileID: 21300000, guid: 27b8882ec3e81de478d17bcad78748cf, type: 3}
  - Key: Assets/_External/tfc-assets/UI/Textures/Units/Portraits/Enemies/T_UI_Satyr2.png
    Resource: {fileID: 21300000, guid: a106a28b5e2ce774a99eb39e1c441c0d, type: 3}
  - Key: Assets/_External/tfc-assets/UI/Textures/Units/Portraits/Enemies/T_UI_Satyr3.png
    Resource: {fileID: 21300000, guid: 683a4eb26cc47c34fa05d4e161e24df8, type: 3}
  - Key: Assets/_External/tfc-assets/UI/Textures/Units/Portraits/Enemies/T_UI_Satyr4.png
    Resource: {fileID: 21300000, guid: d6b350c527a74694789e513ffb6fd367, type: 3}
  - Key: Assets/_External/tfc-assets/UI/Textures/Units/Portraits/Enemies/T_UI_Mynitaur.png
    Resource: {fileID: 21300000, guid: f10c250685b83dd40ac792aa5654c4be, type: 3}
  - Key: Assets/_Project/Prefabs/VFX/PREF_VFX_Weakness_Application.prefab
    Resource: {fileID: 7203410905123665332, guid: 6178176014e807b43aa89c3df5365d5a,
      type: 3}
  - Key: Assets/_Project/Prefabs/VFX/PREF_VFX_Strength_Application.prefab
    Resource: {fileID: 7203410905123665332, guid: 41f55796700fe8d44933526e906a96a5,
      type: 3}
