%YAML 1.1
%TAG !u! tag:unity3d.com,2011:
--- !u!1001 &2481550814134252805
PrefabInstance:
  m_ObjectHideFlags: 0
  serializedVersion: 2
  m_Modification:
    m_TransformParent: {fileID: 0}
    m_Modifications:
    - target: {fileID: 4239577416110454414, guid: ccd042df27cc0a94fb51d5305f349ad3,
        type: 3}
      propertyPath: m_ReferencedEnemy
      value: enemy-e4ba79f32e133e81ddf49f8d9dd6974603ba27436a53158633bb035b9edb6e0f
      objectReference: {fileID: 0}
    - target: {fileID: 6767754795799129396, guid: ccd042df27cc0a94fb51d5305f349ad3,
        type: 3}
      propertyPath: m_LocalPosition.x
      value: 0
      objectReference: {fileID: 0}
    - target: {fileID: 6767754795799129396, guid: ccd042df27cc0a94fb51d5305f349ad3,
        type: 3}
      propertyPath: m_LocalPosition.y
      value: 0
      objectReference: {fileID: 0}
    - target: {fileID: 6767754795799129396, guid: ccd042df27cc0a94fb51d5305f349ad3,
        type: 3}
      propertyPath: m_LocalPosition.z
      value: 0
      objectReference: {fileID: 0}
    - target: {fileID: 6767754795799129396, guid: ccd042df27cc0a94fb51d5305f349ad3,
        type: 3}
      propertyPath: m_LocalRotation.x
      value: 0
      objectReference: {fileID: 0}
    - target: {fileID: 6767754795799129396, guid: ccd042df27cc0a94fb51d5305f349ad3,
        type: 3}
      propertyPath: m_LocalRotation.y
      value: 0
      objectReference: {fileID: 0}
    - target: {fileID: 6767754795799129396, guid: ccd042df27cc0a94fb51d5305f349ad3,
        type: 3}
      propertyPath: m_LocalRotation.z
      value: 0
      objectReference: {fileID: 0}
    - target: {fileID: 6767754795799129396, guid: ccd042df27cc0a94fb51d5305f349ad3,
        type: 3}
      propertyPath: m_LocalRotation.w
      value: 1
      objectReference: {fileID: 0}
    - target: {fileID: 6767754795799129396, guid: ccd042df27cc0a94fb51d5305f349ad3,
        type: 3}
      propertyPath: m_RootOrder
      value: 0
      objectReference: {fileID: 0}
    - target: {fileID: 6767754795799129396, guid: ccd042df27cc0a94fb51d5305f349ad3,
        type: 3}
      propertyPath: m_LocalEulerAnglesHint.x
      value: 0
      objectReference: {fileID: 0}
    - target: {fileID: 6767754795799129396, guid: ccd042df27cc0a94fb51d5305f349ad3,
        type: 3}
      propertyPath: m_LocalEulerAnglesHint.y
      value: 0
      objectReference: {fileID: 0}
    - target: {fileID: 6767754795799129396, guid: ccd042df27cc0a94fb51d5305f349ad3,
        type: 3}
      propertyPath: m_LocalEulerAnglesHint.z
      value: 0
      objectReference: {fileID: 0}
    - target: {fileID: 6767754795799129397, guid: ccd042df27cc0a94fb51d5305f349ad3,
        type: 3}
      propertyPath: m_Name
      value: PREF_C_Enemy_HV4
      objectReference: {fileID: 0}
    m_RemovedComponents: []
  m_SourcePrefab: {fileID: 100100000, guid: ccd042df27cc0a94fb51d5305f349ad3, type: 3}
--- !u!4 &9195181041399109681 stripped
Transform:
  m_CorrespondingSourceObject: {fileID: 6767754795799129396, guid: ccd042df27cc0a94fb51d5305f349ad3,
    type: 3}
  m_PrefabInstance: {fileID: 2481550814134252805}
  m_PrefabAsset: {fileID: 0}
--- !u!1001 &5876688220690113118
PrefabInstance:
  m_ObjectHideFlags: 0
  serializedVersion: 2
  m_Modification:
    m_TransformParent: {fileID: 9195181041399109681}
    m_Modifications:
    - target: {fileID: -4216859302048453862, guid: a5eceae5fa0a0dd4292b86b89c50c5d3,
        type: 3}
      propertyPath: m_LocalPosition.x
      value: -0
      objectReference: {fileID: 0}
    - target: {fileID: -4216859302048453862, guid: a5eceae5fa0a0dd4292b86b89c50c5d3,
        type: 3}
      propertyPath: m_LocalPosition.y
      value: 0
      objectReference: {fileID: 0}
    - target: {fileID: -4216859302048453862, guid: a5eceae5fa0a0dd4292b86b89c50c5d3,
        type: 3}
      propertyPath: m_LocalPosition.z
      value: 0
      objectReference: {fileID: 0}
    - target: {fileID: -4216859302048453862, guid: a5eceae5fa0a0dd4292b86b89c50c5d3,
        type: 3}
      propertyPath: m_LocalRotation.x
      value: 0
      objectReference: {fileID: 0}
    - target: {fileID: -4216859302048453862, guid: a5eceae5fa0a0dd4292b86b89c50c5d3,
        type: 3}
      propertyPath: m_LocalRotation.y
      value: 0.2901594
      objectReference: {fileID: 0}
    - target: {fileID: -4216859302048453862, guid: a5eceae5fa0a0dd4292b86b89c50c5d3,
        type: 3}
      propertyPath: m_LocalRotation.z
      value: 0
      objectReference: {fileID: 0}
    - target: {fileID: -4216859302048453862, guid: a5eceae5fa0a0dd4292b86b89c50c5d3,
        type: 3}
      propertyPath: m_LocalRotation.w
      value: 0.9569784
      objectReference: {fileID: 0}
    - target: {fileID: -4216859302048453862, guid: a5eceae5fa0a0dd4292b86b89c50c5d3,
        type: 3}
      propertyPath: m_RootOrder
      value: 0
      objectReference: {fileID: 0}
    - target: {fileID: -4216859302048453862, guid: a5eceae5fa0a0dd4292b86b89c50c5d3,
        type: 3}
      propertyPath: m_LocalEulerAnglesHint.x
      value: 0
      objectReference: {fileID: 0}
    - target: {fileID: -4216859302048453862, guid: a5eceae5fa0a0dd4292b86b89c50c5d3,
        type: 3}
      propertyPath: m_LocalEulerAnglesHint.y
      value: 33.735
      objectReference: {fileID: 0}
    - target: {fileID: -4216859302048453862, guid: a5eceae5fa0a0dd4292b86b89c50c5d3,
        type: 3}
      propertyPath: m_LocalEulerAnglesHint.z
      value: 0
      objectReference: {fileID: 0}
    - target: {fileID: -927199367670048503, guid: a5eceae5fa0a0dd4292b86b89c50c5d3,
        type: 3}
      propertyPath: m_Name
      value: SM_Enemy_Harpy
      objectReference: {fileID: 0}
    m_RemovedComponents: []
  m_SourcePrefab: {fileID: 100100000, guid: a5eceae5fa0a0dd4292b86b89c50c5d3, type: 3}
