%YAML 1.1
%TAG !u! tag:unity3d.com,2011:
--- !u!114 &11400000
MonoBehaviour:
  m_ObjectHideFlags: 0
  m_CorrespondingSourceObject: {fileID: 0}
  m_PrefabInstance: {fileID: 0}
  m_PrefabAsset: {fileID: 0}
  m_GameObject: {fileID: 0}
  m_Enabled: 1
  m_EditorHideFlags: 0
  m_Script: {fileID: 11500000, guid: 1277f81014224d20907aa3c3b9f99d5d, type: 3}
  m_Name: SO_EG_2_M_2
  m_EditorClassIdentifier: 
  m_SerializedGroup: <?xml version="1.0" encoding="utf-16"?><SerializedObject type="Kairos.Progression.Encounters.EncounterGroup"><Tier
    type="System.Int32">2</Tier><Encounters type="Kairos.Progression.Encounters.Encounter[]"><Empty
    type="Kairos.Progression.Encounters.EnemyEncounter"><TargetEnemyPool type="Kairos.Enemies.EnemyPools.EnemyPoolReference"><PoolId
    type="System.String">enemypool-0e6f81af4861ed626e199d8a8c4882ea41cd4fe7c956327046d4faad490df9ac</PoolId></TargetEnemyPool><RewardPool
    type="TorkFramework.ResourceManagement.ResourceReference"><Path type="System.String">Assets/_Project/ScriptableObjects/Progression/RewardPools/SO_RP_T2_LC.asset</Path></RewardPool><SelectedReward
    type="System.String">.</SelectedReward><PreviewSprite type="TorkFramework.ResourceManagement.ResourceReference"><Path
    type="System.String">Assets/_External/tfc-assets/UI/Textures/Icons/Progression/T_UI_Icon_Progression_Combat_T1.png</Path></PreviewSprite><Cost
    type="System.Int32">2</Cost></Empty><Empty type="Kairos.Progression.Tree.TreeEncounter"><Question
    type="System.String">Luckly enough you have found what seems to be a shortcut,
    but it is filled with enemies.</Question><Options type="Kairos.Progression.Tree.TreeOption[]"><Empty
    type="Kairos.Progression.Tree.TreeOption"><Text type="System.String">Charge the
    enemies and gain some time. (Fight a battle, Gain 3 Time)</Text><Effects type="Kairos.Progression.Tree.TreeEffect[]"><Empty
    type="Kairos.Progression.Tree.EnemyFightTreeEffect"><TargetEnemyPool type="Kairos.Enemies.EnemyPools.EnemyPoolReference"><PoolId
    type="System.String">enemypool-fa3121ab9f00983e8bdc93b05850e5f7fc5c411860958af5a4d7788248a88ff2</PoolId></TargetEnemyPool><RewardPool
    type="TorkFramework.ResourceManagement.ResourceReference"><Path type="System.String">Assets/_Project/ScriptableObjects/Progression/RewardPools/SO_RP_T2_MC.asset</Path></RewardPool><SelectedReward
    type="System.String">.</SelectedReward></Empty><Empty type="Kairos.Progression.Tree.TimeChangeTreeEffect"><TimeChange
    type="System.Int32">-3</TimeChange></Empty></Effects></Empty><Empty type="Kairos.Progression.Tree.TreeOption"><Text
    type="System.String">Ignore the alternative route and the enemies. (Nothing)</Text><Effects
    type="Kairos.Progression.Tree.TreeEffect[]"><Empty type="Kairos.Progression.Tree.TimeChangeTreeEffect"><TimeChange
    type="System.Int32">0</TimeChange></Empty></Effects></Empty></Options><PreviewSprite
    type="TorkFramework.ResourceManagement.ResourceReference"><Path type="System.String">Assets/_External/tfc-assets/UI/Textures/Icons/Progression/T_UI_Icon_Progression_Event.png</Path></PreviewSprite><Cost
    type="System.Int32">3</Cost></Empty><Empty type="Kairos.Progression.Encounters.EnemyEncounter"><TargetEnemyPool
    type="Kairos.Enemies.EnemyPools.EnemyPoolReference"><PoolId type="System.String">enemypool-7ac592d076e53e566452b92564fb4461e3804f7585aadac37557f59195352fa8</PoolId></TargetEnemyPool><RewardPool
    type="TorkFramework.ResourceManagement.ResourceReference"><Path type="System.String">Assets/_Project/ScriptableObjects/Progression/RewardPools/SO_RP_T2_HC.asset</Path></RewardPool><SelectedReward
    type="System.String">.</SelectedReward><PreviewSprite type="TorkFramework.ResourceManagement.ResourceReference"><Path
    type="System.String">Assets/_External/tfc-assets/UI/Textures/Icons/Progression/T_UI_Icon_Progression_Combat_T3.png</Path></PreviewSprite><Cost
    type="System.Int32">5</Cost></Empty></Encounters><IsLastGroup type="System.Boolean">0</IsLastGroup></SerializedObject>
