%YAML 1.1
%TAG !u! tag:unity3d.com,2011:
--- !u!114 &11400000
MonoBehaviour:
  m_ObjectHideFlags: 0
  m_CorrespondingSourceObject: {fileID: 0}
  m_PrefabInstance: {fileID: 0}
  m_PrefabAsset: {fileID: 0}
  m_GameObject: {fileID: 0}
  m_Enabled: 1
  m_EditorHideFlags: 0
  m_Script: {fileID: 11500000, guid: 3967f6d7f69c69a4ebc29dd0b58e698f, type: 3}
  m_Name: SO_RW_CRD_HR_AH_R_2
  m_EditorClassIdentifier: 
  m_SerializedReward: <?xml version="1.0" encoding="utf-16"?><SerializedObject type="Kairos.Progression.Rewards.CardReward"><TargetCard
    type="Kairos.Cards.CardReference"><Id type="System.String">card-8e0274c52fdaf573fc211688d87a750123f0f13eb906248002fb6453a28935d7</Id></TargetCard><Hero
    type="Kairos.Heroes.HeroReference"><Id type="System.String">.</Id></Hero><ShopCost
    type="System.Int32">0</ShopCost></SerializedObject>
