%YAML 1.1
%TAG !u! tag:unity3d.com,2011:
--- !u!1 &906671643201644277
GameObject:
  m_ObjectHideFlags: 0
  m_CorrespondingSourceObject: {fileID: 0}
  m_PrefabInstance: {fileID: 0}
  m_PrefabAsset: {fileID: 0}
  serializedVersion: 6
  m_Component:
  - component: {fileID: 7977483266349222461}
  - component: {fileID: 127990770142604206}
  - component: {fileID: 2855363937547445044}
  m_Layer: 16
  m_Name: PREF_I_SelectionIndicator
  m_TagString: Untagged
  m_Icon: {fileID: 0}
  m_NavMeshLayer: 0
  m_StaticEditorFlags: 0
  m_IsActive: 1
--- !u!4 &7977483266349222461
Transform:
  m_ObjectHideFlags: 0
  m_CorrespondingSourceObject: {fileID: 0}
  m_PrefabInstance: {fileID: 0}
  m_PrefabAsset: {fileID: 0}
  m_GameObject: {fileID: 906671643201644277}
  m_LocalRotation: {x: 0, y: 0, z: 0, w: 1}
  m_LocalPosition: {x: 0, y: 0, z: 0}
  m_LocalScale: {x: 1, y: 1, z: 1}
  m_Children: []
  m_Father: {fileID: 0}
  m_RootOrder: 0
  m_LocalEulerAnglesHint: {x: 0, y: 0, z: 0}
--- !u!114 &127990770142604206
MonoBehaviour:
  m_ObjectHideFlags: 0
  m_CorrespondingSourceObject: {fileID: 0}
  m_PrefabInstance: {fileID: 0}
  m_PrefabAsset: {fileID: 0}
  m_GameObject: {fileID: 906671643201644277}
  m_Enabled: 1
  m_EditorHideFlags: 0
  m_Script: {fileID: 11500000, guid: 11d230de4fc3e1449bd5d0ef2a8ee537, type: 3}
  m_Name: 
  m_EditorClassIdentifier: 
--- !u!114 &2855363937547445044
MonoBehaviour:
  m_ObjectHideFlags: 0
  m_CorrespondingSourceObject: {fileID: 0}
  m_PrefabInstance: {fileID: 0}
  m_PrefabAsset: {fileID: 0}
  m_GameObject: {fileID: 906671643201644277}
  m_Enabled: 1
  m_EditorHideFlags: 0
  m_Script: {fileID: 11500000, guid: 002f01b08be6fdf45b528806680229e4, type: 3}
  m_Name: 
  m_EditorClassIdentifier: 
  m_PointerPrefab: {fileID: 2710758461577970779, guid: 7b715408d87b21c4e9668cce325e4915,
    type: 3}
  m_RepetitionPrefab: {fileID: 5658089116746111682, guid: cc6ce255a897ea64c890213337d58fdc,
    type: 3}
  m_MeshScales: 0.25
  m_ChildOffset: 5
  m_ControlPosition: {x: 0, y: 0, z: 0}
  m_EndPosition: {x: 0, y: 0, z: 0}
