%YAML 1.1
%TAG !u! tag:unity3d.com,2011:
--- !u!114 &11400000
MonoBehaviour:
  m_ObjectHideFlags: 0
  m_CorrespondingSourceObject: {fileID: 0}
  m_PrefabInstance: {fileID: 0}
  m_PrefabAsset: {fileID: 0}
  m_GameObject: {fileID: 0}
  m_Enabled: 1
  m_EditorHideFlags: 0
  m_Script: {fileID: 11500000, guid: f0f8223739b84b72afa4ff18b7bfa7b4, type: 3}
  m_Name: SO_RP_T2_HC
  m_EditorClassIdentifier: 
  PossibleRewards:
  - {fileID: 11400000, guid: 87021abeb5feed84180fc5d1c37a76d8, type: 2}
  - {fileID: 11400000, guid: 87021abeb5feed84180fc5d1c37a76d8, type: 2}
  - {fileID: 11400000, guid: 87021abeb5feed84180fc5d1c37a76d8, type: 2}
  - {fileID: 11400000, guid: 87021abeb5feed84180fc5d1c37a76d8, type: 2}
  - {fileID: 11400000, guid: 87021abeb5feed84180fc5d1c37a76d8, type: 2}
  - {fileID: 11400000, guid: 87021abeb5feed84180fc5d1c37a76d8, type: 2}
  - {fileID: 11400000, guid: 87021abeb5feed84180fc5d1c37a76d8, type: 2}
  - {fileID: 11400000, guid: 87021abeb5feed84180fc5d1c37a76d8, type: 2}
  - {fileID: 11400000, guid: 87021abeb5feed84180fc5d1c37a76d8, type: 2}
  - {fileID: 11400000, guid: 87021abeb5feed84180fc5d1c37a76d8, type: 2}
  - {fileID: 11400000, guid: 392b9e0bbc55fd242bc14bc8683dc1d5, type: 2}
  - {fileID: 11400000, guid: 392b9e0bbc55fd242bc14bc8683dc1d5, type: 2}
  - {fileID: 11400000, guid: 392b9e0bbc55fd242bc14bc8683dc1d5, type: 2}
  - {fileID: 11400000, guid: 392b9e0bbc55fd242bc14bc8683dc1d5, type: 2}
  - {fileID: 11400000, guid: 392b9e0bbc55fd242bc14bc8683dc1d5, type: 2}
  - {fileID: 11400000, guid: 392b9e0bbc55fd242bc14bc8683dc1d5, type: 2}
  - {fileID: 11400000, guid: 392b9e0bbc55fd242bc14bc8683dc1d5, type: 2}
  - {fileID: 11400000, guid: 392b9e0bbc55fd242bc14bc8683dc1d5, type: 2}
  - {fileID: 11400000, guid: 392b9e0bbc55fd242bc14bc8683dc1d5, type: 2}
  - {fileID: 11400000, guid: 392b9e0bbc55fd242bc14bc8683dc1d5, type: 2}
  - {fileID: 11400000, guid: d9ea3f66d6fffd3419c0aac9a0fd5fb9, type: 2}
  - {fileID: 11400000, guid: d9ea3f66d6fffd3419c0aac9a0fd5fb9, type: 2}
  - {fileID: 11400000, guid: d9ea3f66d6fffd3419c0aac9a0fd5fb9, type: 2}
  - {fileID: 11400000, guid: d9ea3f66d6fffd3419c0aac9a0fd5fb9, type: 2}
  - {fileID: 11400000, guid: d9ea3f66d6fffd3419c0aac9a0fd5fb9, type: 2}
  - {fileID: 11400000, guid: d9ea3f66d6fffd3419c0aac9a0fd5fb9, type: 2}
  - {fileID: 11400000, guid: d9ea3f66d6fffd3419c0aac9a0fd5fb9, type: 2}
  - {fileID: 11400000, guid: d9ea3f66d6fffd3419c0aac9a0fd5fb9, type: 2}
  - {fileID: 11400000, guid: d9ea3f66d6fffd3419c0aac9a0fd5fb9, type: 2}
  - {fileID: 11400000, guid: d9ea3f66d6fffd3419c0aac9a0fd5fb9, type: 2}
  - {fileID: 11400000, guid: 3e5dc13badea1714aa72aee731857284, type: 2}
  - {fileID: 11400000, guid: 3e5dc13badea1714aa72aee731857284, type: 2}
  - {fileID: 11400000, guid: 3e5dc13badea1714aa72aee731857284, type: 2}
  - {fileID: 11400000, guid: 3e5dc13badea1714aa72aee731857284, type: 2}
  - {fileID: 11400000, guid: 3e5dc13badea1714aa72aee731857284, type: 2}
  - {fileID: 11400000, guid: 3e5dc13badea1714aa72aee731857284, type: 2}
  - {fileID: 11400000, guid: 3e5dc13badea1714aa72aee731857284, type: 2}
  - {fileID: 11400000, guid: 3e5dc13badea1714aa72aee731857284, type: 2}
  - {fileID: 11400000, guid: 3e5dc13badea1714aa72aee731857284, type: 2}
  - {fileID: 11400000, guid: 3e5dc13badea1714aa72aee731857284, type: 2}
  - {fileID: 11400000, guid: 21cb8082e5f0adb47b60bdab6d63b4ca, type: 2}
  - {fileID: 11400000, guid: 21cb8082e5f0adb47b60bdab6d63b4ca, type: 2}
  - {fileID: 11400000, guid: 21cb8082e5f0adb47b60bdab6d63b4ca, type: 2}
  - {fileID: 11400000, guid: 21cb8082e5f0adb47b60bdab6d63b4ca, type: 2}
  - {fileID: 11400000, guid: 21cb8082e5f0adb47b60bdab6d63b4ca, type: 2}
  - {fileID: 11400000, guid: 21cb8082e5f0adb47b60bdab6d63b4ca, type: 2}
  - {fileID: 11400000, guid: 21cb8082e5f0adb47b60bdab6d63b4ca, type: 2}
  - {fileID: 11400000, guid: 21cb8082e5f0adb47b60bdab6d63b4ca, type: 2}
  - {fileID: 11400000, guid: 21cb8082e5f0adb47b60bdab6d63b4ca, type: 2}
  - {fileID: 11400000, guid: 21cb8082e5f0adb47b60bdab6d63b4ca, type: 2}
  - {fileID: 11400000, guid: 3d9b5fb35f28919429cc48b6c3064745, type: 2}
  - {fileID: 11400000, guid: 3d9b5fb35f28919429cc48b6c3064745, type: 2}
  - {fileID: 11400000, guid: 3d9b5fb35f28919429cc48b6c3064745, type: 2}
  - {fileID: 11400000, guid: 3d9b5fb35f28919429cc48b6c3064745, type: 2}
  - {fileID: 11400000, guid: 3d9b5fb35f28919429cc48b6c3064745, type: 2}
  - {fileID: 11400000, guid: 3d9b5fb35f28919429cc48b6c3064745, type: 2}
  - {fileID: 11400000, guid: 3d9b5fb35f28919429cc48b6c3064745, type: 2}
  - {fileID: 11400000, guid: 3d9b5fb35f28919429cc48b6c3064745, type: 2}
  - {fileID: 11400000, guid: 3d9b5fb35f28919429cc48b6c3064745, type: 2}
  - {fileID: 11400000, guid: 3d9b5fb35f28919429cc48b6c3064745, type: 2}
  - {fileID: 11400000, guid: 3848519ff30b7774d980335e06c7539d, type: 2}
  - {fileID: 11400000, guid: 3848519ff30b7774d980335e06c7539d, type: 2}
  - {fileID: 11400000, guid: 3848519ff30b7774d980335e06c7539d, type: 2}
  - {fileID: 11400000, guid: 3848519ff30b7774d980335e06c7539d, type: 2}
  - {fileID: 11400000, guid: 3848519ff30b7774d980335e06c7539d, type: 2}
  - {fileID: 11400000, guid: 3848519ff30b7774d980335e06c7539d, type: 2}
  - {fileID: 11400000, guid: 3848519ff30b7774d980335e06c7539d, type: 2}
  - {fileID: 11400000, guid: 3848519ff30b7774d980335e06c7539d, type: 2}
  - {fileID: 11400000, guid: 3848519ff30b7774d980335e06c7539d, type: 2}
  - {fileID: 11400000, guid: 3848519ff30b7774d980335e06c7539d, type: 2}
  - {fileID: 11400000, guid: da4346ea05dc70b46a6a7b67473b86dc, type: 2}
  - {fileID: 11400000, guid: da4346ea05dc70b46a6a7b67473b86dc, type: 2}
  - {fileID: 11400000, guid: da4346ea05dc70b46a6a7b67473b86dc, type: 2}
  - {fileID: 11400000, guid: da4346ea05dc70b46a6a7b67473b86dc, type: 2}
  - {fileID: 11400000, guid: da4346ea05dc70b46a6a7b67473b86dc, type: 2}
  - {fileID: 11400000, guid: da4346ea05dc70b46a6a7b67473b86dc, type: 2}
  - {fileID: 11400000, guid: da4346ea05dc70b46a6a7b67473b86dc, type: 2}
  - {fileID: 11400000, guid: da4346ea05dc70b46a6a7b67473b86dc, type: 2}
  - {fileID: 11400000, guid: da4346ea05dc70b46a6a7b67473b86dc, type: 2}
  - {fileID: 11400000, guid: da4346ea05dc70b46a6a7b67473b86dc, type: 2}
  - {fileID: 11400000, guid: 802c4af535c69cb41ac36cf25842a52c, type: 2}
  - {fileID: 11400000, guid: 802c4af535c69cb41ac36cf25842a52c, type: 2}
  - {fileID: 11400000, guid: 802c4af535c69cb41ac36cf25842a52c, type: 2}
  - {fileID: 11400000, guid: 802c4af535c69cb41ac36cf25842a52c, type: 2}
  - {fileID: 11400000, guid: 802c4af535c69cb41ac36cf25842a52c, type: 2}
  - {fileID: 11400000, guid: 802c4af535c69cb41ac36cf25842a52c, type: 2}
  - {fileID: 11400000, guid: 802c4af535c69cb41ac36cf25842a52c, type: 2}
  - {fileID: 11400000, guid: 802c4af535c69cb41ac36cf25842a52c, type: 2}
  - {fileID: 11400000, guid: 802c4af535c69cb41ac36cf25842a52c, type: 2}
  - {fileID: 11400000, guid: 802c4af535c69cb41ac36cf25842a52c, type: 2}
  - {fileID: 11400000, guid: 3c81b150b9507cd4cba0c8c7b88fad80, type: 2}
  - {fileID: 11400000, guid: 3c81b150b9507cd4cba0c8c7b88fad80, type: 2}
  - {fileID: 11400000, guid: 3c81b150b9507cd4cba0c8c7b88fad80, type: 2}
  - {fileID: 11400000, guid: 3c81b150b9507cd4cba0c8c7b88fad80, type: 2}
  - {fileID: 11400000, guid: 3c81b150b9507cd4cba0c8c7b88fad80, type: 2}
  - {fileID: 11400000, guid: 3c81b150b9507cd4cba0c8c7b88fad80, type: 2}
  - {fileID: 11400000, guid: 3c81b150b9507cd4cba0c8c7b88fad80, type: 2}
  - {fileID: 11400000, guid: 3c81b150b9507cd4cba0c8c7b88fad80, type: 2}
  - {fileID: 11400000, guid: 3c81b150b9507cd4cba0c8c7b88fad80, type: 2}
  - {fileID: 11400000, guid: acf1e5afcdfe6be428549eda74ab12ec, type: 2}
  - {fileID: 11400000, guid: acf1e5afcdfe6be428549eda74ab12ec, type: 2}
  - {fileID: 11400000, guid: acf1e5afcdfe6be428549eda74ab12ec, type: 2}
  - {fileID: 11400000, guid: acf1e5afcdfe6be428549eda74ab12ec, type: 2}
  - {fileID: 11400000, guid: acf1e5afcdfe6be428549eda74ab12ec, type: 2}
  - {fileID: 11400000, guid: acf1e5afcdfe6be428549eda74ab12ec, type: 2}
  - {fileID: 11400000, guid: acf1e5afcdfe6be428549eda74ab12ec, type: 2}
  - {fileID: 11400000, guid: acf1e5afcdfe6be428549eda74ab12ec, type: 2}
  - {fileID: 11400000, guid: acf1e5afcdfe6be428549eda74ab12ec, type: 2}
  - {fileID: 11400000, guid: c4460eb6d1b9fc448b9a2ce9e53e20c8, type: 2}
  - {fileID: 11400000, guid: c4460eb6d1b9fc448b9a2ce9e53e20c8, type: 2}
  - {fileID: 11400000, guid: c4460eb6d1b9fc448b9a2ce9e53e20c8, type: 2}
  - {fileID: 11400000, guid: c4460eb6d1b9fc448b9a2ce9e53e20c8, type: 2}
  - {fileID: 11400000, guid: c4460eb6d1b9fc448b9a2ce9e53e20c8, type: 2}
  - {fileID: 11400000, guid: c4460eb6d1b9fc448b9a2ce9e53e20c8, type: 2}
  - {fileID: 11400000, guid: c4460eb6d1b9fc448b9a2ce9e53e20c8, type: 2}
  - {fileID: 11400000, guid: c4460eb6d1b9fc448b9a2ce9e53e20c8, type: 2}
  - {fileID: 11400000, guid: c4460eb6d1b9fc448b9a2ce9e53e20c8, type: 2}
  - {fileID: 11400000, guid: a0becdfedb5e1ee45a23375aaa1ecac5, type: 2}
  - {fileID: 11400000, guid: a0becdfedb5e1ee45a23375aaa1ecac5, type: 2}
  - {fileID: 11400000, guid: a0becdfedb5e1ee45a23375aaa1ecac5, type: 2}
  - {fileID: 11400000, guid: a0becdfedb5e1ee45a23375aaa1ecac5, type: 2}
  - {fileID: 11400000, guid: a0becdfedb5e1ee45a23375aaa1ecac5, type: 2}
  - {fileID: 11400000, guid: a0becdfedb5e1ee45a23375aaa1ecac5, type: 2}
  - {fileID: 11400000, guid: a0becdfedb5e1ee45a23375aaa1ecac5, type: 2}
  - {fileID: 11400000, guid: cde6a139e18427949af4c3a61438d376, type: 2}
  - {fileID: 11400000, guid: cde6a139e18427949af4c3a61438d376, type: 2}
  - {fileID: 11400000, guid: cde6a139e18427949af4c3a61438d376, type: 2}
  - {fileID: 11400000, guid: cde6a139e18427949af4c3a61438d376, type: 2}
  - {fileID: 11400000, guid: cde6a139e18427949af4c3a61438d376, type: 2}
  - {fileID: 11400000, guid: cde6a139e18427949af4c3a61438d376, type: 2}
  - {fileID: 11400000, guid: cde6a139e18427949af4c3a61438d376, type: 2}
  - {fileID: 11400000, guid: 8a51edb479e10574c9046a0cefb4fcdf, type: 2}
  - {fileID: 11400000, guid: 8a51edb479e10574c9046a0cefb4fcdf, type: 2}
  - {fileID: 11400000, guid: 8a51edb479e10574c9046a0cefb4fcdf, type: 2}
  - {fileID: 11400000, guid: 8a51edb479e10574c9046a0cefb4fcdf, type: 2}
  - {fileID: 11400000, guid: 8a51edb479e10574c9046a0cefb4fcdf, type: 2}
  - {fileID: 11400000, guid: 8a51edb479e10574c9046a0cefb4fcdf, type: 2}
  - {fileID: 11400000, guid: 8a51edb479e10574c9046a0cefb4fcdf, type: 2}
  - {fileID: 11400000, guid: 1a44ef992f752cf4590ee7cb163e459f, type: 2}
  - {fileID: 11400000, guid: 1a44ef992f752cf4590ee7cb163e459f, type: 2}
  - {fileID: 11400000, guid: 1a44ef992f752cf4590ee7cb163e459f, type: 2}
  - {fileID: 11400000, guid: 1a44ef992f752cf4590ee7cb163e459f, type: 2}
  - {fileID: 11400000, guid: 1a44ef992f752cf4590ee7cb163e459f, type: 2}
  - {fileID: 11400000, guid: 1a44ef992f752cf4590ee7cb163e459f, type: 2}
  - {fileID: 11400000, guid: 1a44ef992f752cf4590ee7cb163e459f, type: 2}
  - {fileID: 11400000, guid: a7b9e326376495043b8955b11009890e, type: 2}
  - {fileID: 11400000, guid: a7b9e326376495043b8955b11009890e, type: 2}
  - {fileID: 11400000, guid: a7b9e326376495043b8955b11009890e, type: 2}
  - {fileID: 11400000, guid: a7b9e326376495043b8955b11009890e, type: 2}
  - {fileID: 11400000, guid: a7b9e326376495043b8955b11009890e, type: 2}
  - {fileID: 11400000, guid: a7b9e326376495043b8955b11009890e, type: 2}
  - {fileID: 11400000, guid: a7b9e326376495043b8955b11009890e, type: 2}
  - {fileID: 11400000, guid: c751731220229114db2c60df5249eace, type: 2}
  - {fileID: 11400000, guid: c751731220229114db2c60df5249eace, type: 2}
  - {fileID: 11400000, guid: c751731220229114db2c60df5249eace, type: 2}
  - {fileID: 11400000, guid: c751731220229114db2c60df5249eace, type: 2}
  - {fileID: 11400000, guid: c751731220229114db2c60df5249eace, type: 2}
  - {fileID: 11400000, guid: c751731220229114db2c60df5249eace, type: 2}
  - {fileID: 11400000, guid: c751731220229114db2c60df5249eace, type: 2}
