%YAML 1.1
%TAG !u! tag:unity3d.com,2011:
--- !u!114 &11400000
MonoBehaviour:
  m_ObjectHideFlags: 0
  m_CorrespondingSourceObject: {fileID: 0}
  m_PrefabInstance: {fileID: 0}
  m_PrefabAsset: {fileID: 0}
  m_GameObject: {fileID: 0}
  m_Enabled: 1
  m_EditorHideFlags: 0
  m_Script: {fileID: 11500000, guid: f0f8223739b84b72afa4ff18b7bfa7b4, type: 3}
  m_Name: SO_RP_Tier1
  m_EditorClassIdentifier: 
  PossibleRewards:
  - {fileID: 11400000, guid: 8eb8d0c0b9db1eb43980e21936f31a1e, type: 2}
  - {fileID: 11400000, guid: 3980cdc17a3f6454c96b04dee8b05f3b, type: 2}
  - {fileID: 11400000, guid: 2fe0dff4b47030b4681437de245ef301, type: 2}
  - {fileID: 11400000, guid: 94da732a77aed9740a50e8d8d487621b, type: 2}
  - {fileID: 11400000, guid: 0ca97da8713396d4db738c3c77a9308c, type: 2}
  - {fileID: 11400000, guid: 975189f4a047723479155821df396db4, type: 2}
  - {fileID: 11400000, guid: ec7162f67520a5f4ebb41fa034854811, type: 2}
  - {fileID: 11400000, guid: defaa8c07ee3094408a32a7ea6069804, type: 2}
  - {fileID: 11400000, guid: 3a2e1a3f7624abf4c8cddab802597a9e, type: 2}
  - {fileID: 11400000, guid: 252a795fe0095064d96017291680a9a2, type: 2}
  - {fileID: 11400000, guid: 647c73c83619a9048a92f21034a2028f, type: 2}
  - {fileID: 11400000, guid: eeeb8ee5129c4b440bdea46a3b2c7bba, type: 2}
  - {fileID: 11400000, guid: a40e97303ed6ab94b9fb57d456b3bc23, type: 2}
  - {fileID: 11400000, guid: ffaada8ff5136114e8320d50fd1889f5, type: 2}
  - {fileID: 11400000, guid: e7163f1ebc12a414a93109523799217e, type: 2}
  - {fileID: 11400000, guid: ffaada8ff5136114e8320d50fd1889f5, type: 2}
