%YAML 1.1
%TAG !u! tag:unity3d.com,2011:
--- !u!1 &8617415497001544098
GameObject:
  m_ObjectHideFlags: 0
  m_CorrespondingSourceObject: {fileID: 0}
  m_PrefabInstance: {fileID: 0}
  m_PrefabAsset: {fileID: 0}
  serializedVersion: 6
  m_Component:
  - component: {fileID: 3871656027975918805}
  - component: {fileID: 5689677715972825081}
  m_Layer: 10
  m_Name: PREF_M_GameManager
  m_TagString: Untagged
  m_Icon: {fileID: 0}
  m_NavMeshLayer: 0
  m_StaticEditorFlags: 0
  m_IsActive: 1
--- !u!4 &3871656027975918805
Transform:
  m_ObjectHideFlags: 0
  m_CorrespondingSourceObject: {fileID: 0}
  m_PrefabInstance: {fileID: 0}
  m_PrefabAsset: {fileID: 0}
  m_GameObject: {fileID: 8617415497001544098}
  m_LocalRotation: {x: 0, y: 0, z: 0, w: 1}
  m_LocalPosition: {x: 0, y: 0, z: 0}
  m_LocalScale: {x: 1, y: 1, z: 1}
  m_Children: []
  m_Father: {fileID: 0}
  m_RootOrder: 0
  m_LocalEulerAnglesHint: {x: 0, y: 0, z: 0}
--- !u!114 &5689677715972825081
MonoBehaviour:
  m_ObjectHideFlags: 0
  m_CorrespondingSourceObject: {fileID: 0}
  m_PrefabInstance: {fileID: 0}
  m_PrefabAsset: {fileID: 0}
  m_GameObject: {fileID: 8617415497001544098}
  m_Enabled: 1
  m_EditorHideFlags: 0
  m_Script: {fileID: 11500000, guid: 962779972ca521a47ac97947adf4d3e8, type: 3}
  m_Name: 
  m_EditorClassIdentifier: 
  m_ManagerPrefabs:
  - {fileID: 7949636749943068982, guid: d114e1c4a86cd164f9df07b14d8a21d6, type: 3}
  - {fileID: 1103120023096348150, guid: fd501ae9d84b63c48bfecfc00d52a257, type: 3}
  - {fileID: 306340906269091113, guid: e1121b5930655f347960abf7e7da72ba, type: 3}
  - {fileID: 9052335055384962030, guid: 34521f84ddf7ecf4bac85d6d12490558, type: 3}
  - {fileID: 6235525021583498256, guid: e5381489476200543a0f23dfd6cad143, type: 3}
  - {fileID: 774355003470975072, guid: 55c7be8169410e84199b51c96d1d61b2, type: 3}
  m_PoolProfiles: []
